\relax 
\providecommand\hyper@newdestlabel[2]{}
\providecommand\HyperFirstAtBeginDocument{\AtBeginDocument}
\HyperFirstAtBeginDocument{\ifx\hyper@anchor\@undefined
\global\let\oldcontentsline\contentsline
\gdef\contentsline#1#2#3#4{\oldcontentsline{#1}{#2}{#3}}
\global\let\oldnewlabel\newlabel
\gdef\newlabel#1#2{\newlabelxx{#1}#2}
\gdef\newlabelxx#1#2#3#4#5#6{\oldnewlabel{#1}{{#2}{#3}}}
\AtEndDocument{\ifx\hyper@anchor\@undefined
\let\contentsline\oldcontentsline
\let\newlabel\oldnewlabel
\fi}
\fi}
\global\let\hyper@last\relax 
\gdef\HyperFirstAtBeginDocument#1{#1}
\providecommand\HyField@AuxAddToFields[1]{}
\providecommand\HyField@AuxAddToCoFields[2]{}
\@writefile{toc}{\beamer@endinputifotherversion {3.36pt}}
\@writefile{nav}{\beamer@endinputifotherversion {3.36pt}}
\@writefile{nav}{\headcommand {\slideentry {0}{0}{1}{1/1}{}{0}}}
\@writefile{nav}{\headcommand {\beamer@framepages {1}{1}}}
\@writefile{nav}{\headcommand {\sectionentry {1}{Overview}{2}{Overview}{0}}}
\@writefile{nav}{\headcommand {\beamer@sectionpages {1}{1}}}
\@writefile{nav}{\headcommand {\beamer@subsectionpages {1}{1}}}
\@writefile{nav}{\headcommand {\slideentry {1}{0}{1}{2/2}{}{0}}}
\@writefile{nav}{\headcommand {\beamer@framepages {2}{2}}}
\@writefile{toc}{\beamer@sectionintoc {2}{Introduzione}{3}{0}{1}}
\@writefile{nav}{\headcommand {\sectionentry {2}{Introduzione}{3}{Introduzione}{0}}}
\@writefile{nav}{\headcommand {\beamer@sectionpages {2}{2}}}
\@writefile{nav}{\headcommand {\beamer@subsectionpages {2}{2}}}
\@writefile{nav}{\headcommand {\slideentry {2}{0}{1}{3/3}{}{0}}}
\@writefile{nav}{\headcommand {\beamer@framepages {3}{3}}}
\@writefile{toc}{\beamer@subsectionintoc {2}{1}{Big Data}{4}{0}{1}}
\@writefile{nav}{\headcommand {\beamer@subsectionentry {0}{2}{1}{4}{Big Data}}\headcommand {\beamer@subsectionpages {3}{3}}}
\@writefile{nav}{\headcommand {\slideentry {2}{1}{1}{4/4}{Big Data}{0}}}
\@writefile{nav}{\headcommand {\beamer@framepages {4}{4}}}
\@writefile{nav}{\headcommand {\slideentry {2}{1}{2}{5/5}{Big Data}{0}}}
\@writefile{nav}{\headcommand {\beamer@framepages {5}{5}}}
\@writefile{nav}{\headcommand {\slideentry {2}{1}{3}{6/6}{Big Data}{0}}}
\@writefile{nav}{\headcommand {\beamer@framepages {6}{6}}}
\@writefile{toc}{\beamer@subsectionintoc {2}{2}{Machine Learning}{7}{0}{1}}
\@writefile{nav}{\headcommand {\beamer@subsectionentry {0}{2}{2}{7}{Machine Learning}}\headcommand {\beamer@subsectionpages {4}{6}}}
\@writefile{nav}{\headcommand {\slideentry {2}{2}{1}{7/7}{Machine Learning}{0}}}
\@writefile{nav}{\headcommand {\beamer@framepages {7}{7}}}
\@writefile{nav}{\headcommand {\slideentry {2}{2}{2}{8/8}{Machine Learning}{0}}}
\@writefile{nav}{\headcommand {\beamer@framepages {8}{8}}}
\@writefile{nav}{\headcommand {\slideentry {2}{2}{3}{9/9}{Machine Learning}{0}}}
\@writefile{nav}{\headcommand {\beamer@framepages {9}{9}}}
\@writefile{toc}{\beamer@sectionintoc {3}{Framework di Machine Learning}{10}{0}{2}}
\@writefile{nav}{\headcommand {\sectionentry {3}{Framework di Machine Learning}{10}{Framework di Machine Learning}{0}}}
\@writefile{nav}{\headcommand {\beamer@sectionpages {3}{9}}}
\@writefile{nav}{\headcommand {\beamer@subsectionpages {7}{9}}}
\@writefile{nav}{\headcommand {\slideentry {3}{0}{1}{10/10}{}{0}}}
\@writefile{nav}{\headcommand {\beamer@framepages {10}{10}}}
\@writefile{nav}{\headcommand {\slideentry {3}{0}{2}{11/11}{}{0}}}
\@writefile{nav}{\headcommand {\beamer@framepages {11}{11}}}
\@writefile{toc}{\beamer@subsectionintoc {3}{1}{Task di Machine Learning}{12}{0}{2}}
\@writefile{nav}{\headcommand {\beamer@subsectionentry {0}{3}{1}{12}{Task di Machine Learning}}\headcommand {\beamer@subsectionpages {10}{11}}}
\@writefile{nav}{\headcommand {\slideentry {3}{1}{1}{12/12}{Task di Machine Learning}{0}}}
\@writefile{nav}{\headcommand {\beamer@framepages {12}{12}}}
\@writefile{nav}{\headcommand {\slideentry {3}{1}{2}{13/13}{Task di Machine Learning}{0}}}
\@writefile{nav}{\headcommand {\beamer@framepages {13}{13}}}
\@writefile{nav}{\headcommand {\slideentry {3}{1}{3}{14/14}{Task di Machine Learning}{0}}}
\@writefile{nav}{\headcommand {\beamer@framepages {14}{14}}}
\newlabel{tab:WindowFunctions}{{14}{15}{Task di Machine Learning}{Doc-Start}{}}
\@writefile{snm}{\beamer@slide {tab:WindowFunctions}{15}}
\@writefile{nav}{\headcommand {\slideentry {3}{1}{4}{15/15}{Task di Machine Learning}{0}}}
\@writefile{nav}{\headcommand {\beamer@framepages {15}{15}}}
\@writefile{nav}{\headcommand {\slideentry {3}{1}{5}{16/16}{Task di Machine Learning}{0}}}
\@writefile{nav}{\headcommand {\beamer@framepages {16}{16}}}
\@writefile{toc}{\beamer@sectionintoc {4}{Implementazione del Sistema}{17}{0}{3}}
\@writefile{nav}{\headcommand {\sectionentry {4}{Implementazione del Sistema}{17}{Implementazione del Sistema}{0}}}
\@writefile{nav}{\headcommand {\beamer@sectionpages {10}{16}}}
\@writefile{nav}{\headcommand {\beamer@subsectionpages {12}{16}}}
\@writefile{nav}{\headcommand {\slideentry {4}{0}{1}{17/17}{}{0}}}
\@writefile{nav}{\headcommand {\beamer@framepages {17}{17}}}
\@writefile{nav}{\headcommand {\slideentry {4}{0}{2}{18/18}{}{0}}}
\@writefile{nav}{\headcommand {\beamer@framepages {18}{18}}}
\@writefile{nav}{\headcommand {\slideentry {4}{0}{3}{19/19}{}{0}}}
\@writefile{nav}{\headcommand {\beamer@framepages {19}{19}}}
\@writefile{nav}{\headcommand {\slideentry {4}{0}{4}{20/20}{}{0}}}
\@writefile{nav}{\headcommand {\beamer@framepages {20}{20}}}
\@writefile{nav}{\headcommand {\slideentry {4}{0}{5}{21/21}{}{0}}}
\@writefile{nav}{\headcommand {\beamer@framepages {21}{21}}}
\@writefile{nav}{\headcommand {\slideentry {4}{0}{6}{22/22}{}{0}}}
\@writefile{nav}{\headcommand {\beamer@framepages {22}{22}}}
\@writefile{nav}{\headcommand {\slideentry {4}{0}{7}{23/23}{}{0}}}
\@writefile{nav}{\headcommand {\beamer@framepages {23}{23}}}
\@writefile{nav}{\headcommand {\slideentry {4}{0}{8}{24/24}{}{0}}}
\@writefile{nav}{\headcommand {\beamer@framepages {24}{24}}}
\@writefile{toc}{\beamer@sectionintoc {5}{Utilizzo del Framework}{25}{0}{4}}
\@writefile{nav}{\headcommand {\sectionentry {5}{Utilizzo del Framework}{25}{Utilizzo del Framework}{0}}}
\@writefile{nav}{\headcommand {\beamer@sectionpages {17}{24}}}
\@writefile{nav}{\headcommand {\beamer@subsectionpages {17}{24}}}
\@writefile{nav}{\headcommand {\slideentry {5}{0}{1}{25/25}{}{0}}}
\@writefile{nav}{\headcommand {\beamer@framepages {25}{25}}}
\@writefile{nav}{\headcommand {\slideentry {5}{0}{2}{26/26}{}{0}}}
\@writefile{nav}{\headcommand {\beamer@framepages {26}{26}}}
\@writefile{nav}{\headcommand {\slideentry {5}{0}{3}{27/27}{}{0}}}
\@writefile{nav}{\headcommand {\beamer@framepages {27}{27}}}
\@writefile{toc}{\beamer@subsectionintoc {5}{1}{Framework di ML \& !CHAOS}{28}{0}{4}}
\@writefile{nav}{\headcommand {\beamer@subsectionentry {0}{5}{1}{28}{Framework di ML \& !CHAOS}}\headcommand {\beamer@subsectionpages {25}{27}}}
\@writefile{nav}{\headcommand {\slideentry {5}{1}{1}{28/28}{Framework di ML \& !CHAOS}{0}}}
\@writefile{nav}{\headcommand {\beamer@framepages {28}{28}}}
\@writefile{nav}{\headcommand {\slideentry {5}{1}{2}{29/29}{Framework di ML \& !CHAOS}{0}}}
\@writefile{nav}{\headcommand {\beamer@framepages {29}{29}}}
\@writefile{nav}{\headcommand {\slideentry {5}{1}{3}{30/30}{Framework di ML \& !CHAOS}{0}}}
\@writefile{nav}{\headcommand {\beamer@framepages {30}{30}}}
\@writefile{nav}{\headcommand {\slideentry {5}{1}{4}{31/31}{Framework di ML \& !CHAOS}{0}}}
\@writefile{nav}{\headcommand {\beamer@framepages {31}{31}}}
\@writefile{toc}{\beamer@subsectionintoc {5}{2}{Utilizzo del framework}{32}{0}{4}}
\@writefile{nav}{\headcommand {\beamer@subsectionentry {0}{5}{2}{32}{Utilizzo del framework}}\headcommand {\beamer@subsectionpages {28}{31}}}
\@writefile{nav}{\headcommand {\slideentry {5}{2}{1}{32/32}{Utilizzo del framework}{0}}}
\@writefile{nav}{\headcommand {\beamer@framepages {32}{32}}}
\@writefile{nav}{\headcommand {\slideentry {5}{2}{2}{33/33}{Utilizzo del framework}{0}}}
\@writefile{nav}{\headcommand {\beamer@framepages {33}{33}}}
\@writefile{nav}{\headcommand {\slideentry {5}{2}{3}{34/34}{Utilizzo del framework}{0}}}
\@writefile{nav}{\headcommand {\beamer@framepages {34}{34}}}
\@writefile{nav}{\headcommand {\slideentry {5}{2}{4}{35/35}{Utilizzo del framework}{0}}}
\@writefile{nav}{\headcommand {\beamer@framepages {35}{35}}}
\@writefile{nav}{\headcommand {\slideentry {5}{2}{5}{36/36}{Utilizzo del framework}{0}}}
\@writefile{nav}{\headcommand {\beamer@framepages {36}{36}}}
\@writefile{nav}{\headcommand {\slideentry {5}{2}{6}{37/37}{Utilizzo del framework}{0}}}
\@writefile{nav}{\headcommand {\beamer@framepages {37}{37}}}
\@writefile{nav}{\headcommand {\slideentry {5}{2}{7}{38/38}{Utilizzo del framework}{0}}}
\@writefile{nav}{\headcommand {\beamer@framepages {38}{38}}}
\@writefile{toc}{\beamer@sectionintoc {6}{Conclusioni}{39}{0}{5}}
\@writefile{nav}{\headcommand {\sectionentry {6}{Conclusioni}{39}{Conclusioni}{0}}}
\@writefile{nav}{\headcommand {\beamer@sectionpages {25}{38}}}
\@writefile{nav}{\headcommand {\beamer@subsectionpages {32}{38}}}
\@writefile{nav}{\headcommand {\slideentry {6}{0}{1}{39/39}{}{0}}}
\@writefile{nav}{\headcommand {\beamer@framepages {39}{39}}}
\@writefile{nav}{\headcommand {\slideentry {6}{0}{2}{40/40}{}{0}}}
\@writefile{nav}{\headcommand {\beamer@framepages {40}{40}}}
\@writefile{nav}{\headcommand {\slideentry {6}{0}{3}{41/41}{}{0}}}
\@writefile{nav}{\headcommand {\beamer@framepages {41}{41}}}
\@writefile{nav}{\headcommand {\beamer@partpages {1}{41}}}
\@writefile{nav}{\headcommand {\beamer@subsectionpages {39}{41}}}
\@writefile{nav}{\headcommand {\beamer@sectionpages {39}{41}}}
\@writefile{nav}{\headcommand {\beamer@documentpages {41}}}
\@writefile{nav}{\headcommand {\def \inserttotalframenumber {40}}}
