\beamer@endinputifotherversion {3.36pt}
\headcommand {\slideentry {0}{0}{1}{1/1}{}{0}}
\headcommand {\beamer@framepages {1}{1}}
\headcommand {\sectionentry {1}{Overview}{2}{Overview}{0}}
\headcommand {\beamer@sectionpages {1}{1}}
\headcommand {\beamer@subsectionpages {1}{1}}
\headcommand {\slideentry {1}{0}{1}{2/2}{}{0}}
\headcommand {\beamer@framepages {2}{2}}
\headcommand {\sectionentry {2}{Introduzione}{3}{Introduzione}{0}}
\headcommand {\beamer@sectionpages {2}{2}}
\headcommand {\beamer@subsectionpages {2}{2}}
\headcommand {\slideentry {2}{0}{1}{3/3}{}{0}}
\headcommand {\beamer@framepages {3}{3}}
\headcommand {\beamer@subsectionentry {0}{2}{1}{4}{Big Data}}\headcommand {\beamer@subsectionpages {3}{3}}
\headcommand {\slideentry {2}{1}{1}{4/4}{Big Data}{0}}
\headcommand {\beamer@framepages {4}{4}}
\headcommand {\slideentry {2}{1}{2}{5/5}{Big Data}{0}}
\headcommand {\beamer@framepages {5}{5}}
\headcommand {\slideentry {2}{1}{3}{6/6}{Big Data}{0}}
\headcommand {\beamer@framepages {6}{6}}
\headcommand {\beamer@subsectionentry {0}{2}{2}{7}{Machine Learning}}\headcommand {\beamer@subsectionpages {4}{6}}
\headcommand {\slideentry {2}{2}{1}{7/7}{Machine Learning}{0}}
\headcommand {\beamer@framepages {7}{7}}
\headcommand {\slideentry {2}{2}{2}{8/8}{Machine Learning}{0}}
\headcommand {\beamer@framepages {8}{8}}
\headcommand {\slideentry {2}{2}{3}{9/9}{Machine Learning}{0}}
\headcommand {\beamer@framepages {9}{9}}
\headcommand {\sectionentry {3}{Framework di Machine Learning}{10}{Framework di Machine Learning}{0}}
\headcommand {\beamer@sectionpages {3}{9}}
\headcommand {\beamer@subsectionpages {7}{9}}
\headcommand {\slideentry {3}{0}{1}{10/10}{}{0}}
\headcommand {\beamer@framepages {10}{10}}
\headcommand {\slideentry {3}{0}{2}{11/11}{}{0}}
\headcommand {\beamer@framepages {11}{11}}
\headcommand {\beamer@subsectionentry {0}{3}{1}{12}{Task di Machine Learning}}\headcommand {\beamer@subsectionpages {10}{11}}
\headcommand {\slideentry {3}{1}{1}{12/12}{Task di Machine Learning}{0}}
\headcommand {\beamer@framepages {12}{12}}
\headcommand {\slideentry {3}{1}{2}{13/13}{Task di Machine Learning}{0}}
\headcommand {\beamer@framepages {13}{13}}
\headcommand {\slideentry {3}{1}{3}{14/14}{Task di Machine Learning}{0}}
\headcommand {\beamer@framepages {14}{14}}
\headcommand {\slideentry {3}{1}{4}{15/15}{Task di Machine Learning}{0}}
\headcommand {\beamer@framepages {15}{15}}
\headcommand {\slideentry {3}{1}{5}{16/16}{Task di Machine Learning}{0}}
\headcommand {\beamer@framepages {16}{16}}
\headcommand {\sectionentry {4}{Implementazione del Sistema}{17}{Implementazione del Sistema}{0}}
\headcommand {\beamer@sectionpages {10}{16}}
\headcommand {\beamer@subsectionpages {12}{16}}
\headcommand {\slideentry {4}{0}{1}{17/17}{}{0}}
\headcommand {\beamer@framepages {17}{17}}
\headcommand {\slideentry {4}{0}{2}{18/18}{}{0}}
\headcommand {\beamer@framepages {18}{18}}
\headcommand {\slideentry {4}{0}{3}{19/19}{}{0}}
\headcommand {\beamer@framepages {19}{19}}
\headcommand {\slideentry {4}{0}{4}{20/20}{}{0}}
\headcommand {\beamer@framepages {20}{20}}
\headcommand {\slideentry {4}{0}{5}{21/21}{}{0}}
\headcommand {\beamer@framepages {21}{21}}
\headcommand {\slideentry {4}{0}{6}{22/22}{}{0}}
\headcommand {\beamer@framepages {22}{22}}
\headcommand {\slideentry {4}{0}{7}{23/23}{}{0}}
\headcommand {\beamer@framepages {23}{23}}
\headcommand {\slideentry {4}{0}{8}{24/24}{}{0}}
\headcommand {\beamer@framepages {24}{24}}
\headcommand {\sectionentry {5}{Utilizzo del Framework}{25}{Utilizzo del Framework}{0}}
\headcommand {\beamer@sectionpages {17}{24}}
\headcommand {\beamer@subsectionpages {17}{24}}
\headcommand {\slideentry {5}{0}{1}{25/25}{}{0}}
\headcommand {\beamer@framepages {25}{25}}
\headcommand {\slideentry {5}{0}{2}{26/26}{}{0}}
\headcommand {\beamer@framepages {26}{26}}
\headcommand {\slideentry {5}{0}{3}{27/27}{}{0}}
\headcommand {\beamer@framepages {27}{27}}
\headcommand {\beamer@subsectionentry {0}{5}{1}{28}{Framework di ML \& !CHAOS}}\headcommand {\beamer@subsectionpages {25}{27}}
\headcommand {\slideentry {5}{1}{1}{28/28}{Framework di ML \& !CHAOS}{0}}
\headcommand {\beamer@framepages {28}{28}}
\headcommand {\slideentry {5}{1}{2}{29/29}{Framework di ML \& !CHAOS}{0}}
\headcommand {\beamer@framepages {29}{29}}
\headcommand {\slideentry {5}{1}{3}{30/30}{Framework di ML \& !CHAOS}{0}}
\headcommand {\beamer@framepages {30}{30}}
\headcommand {\slideentry {5}{1}{4}{31/31}{Framework di ML \& !CHAOS}{0}}
\headcommand {\beamer@framepages {31}{31}}
\headcommand {\beamer@subsectionentry {0}{5}{2}{32}{Utilizzo del framework}}\headcommand {\beamer@subsectionpages {28}{31}}
\headcommand {\slideentry {5}{2}{1}{32/32}{Utilizzo del framework}{0}}
\headcommand {\beamer@framepages {32}{32}}
\headcommand {\slideentry {5}{2}{2}{33/33}{Utilizzo del framework}{0}}
\headcommand {\beamer@framepages {33}{33}}
\headcommand {\slideentry {5}{2}{3}{34/34}{Utilizzo del framework}{0}}
\headcommand {\beamer@framepages {34}{34}}
\headcommand {\slideentry {5}{2}{4}{35/35}{Utilizzo del framework}{0}}
\headcommand {\beamer@framepages {35}{35}}
\headcommand {\slideentry {5}{2}{5}{36/36}{Utilizzo del framework}{0}}
\headcommand {\beamer@framepages {36}{36}}
\headcommand {\slideentry {5}{2}{6}{37/37}{Utilizzo del framework}{0}}
\headcommand {\beamer@framepages {37}{37}}
\headcommand {\slideentry {5}{2}{7}{38/38}{Utilizzo del framework}{0}}
\headcommand {\beamer@framepages {38}{38}}
\headcommand {\sectionentry {6}{Conclusioni}{39}{Conclusioni}{0}}
\headcommand {\beamer@sectionpages {25}{38}}
\headcommand {\beamer@subsectionpages {32}{38}}
\headcommand {\slideentry {6}{0}{1}{39/39}{}{0}}
\headcommand {\beamer@framepages {39}{39}}
\headcommand {\slideentry {6}{0}{2}{40/40}{}{0}}
\headcommand {\beamer@framepages {40}{40}}
\headcommand {\slideentry {6}{0}{3}{41/41}{}{0}}
\headcommand {\beamer@framepages {41}{41}}
\headcommand {\beamer@partpages {1}{41}}
\headcommand {\beamer@subsectionpages {39}{41}}
\headcommand {\beamer@sectionpages {39}{41}}
\headcommand {\beamer@documentpages {41}}
\headcommand {\def \inserttotalframenumber {40}}
