\beamer@endinputifotherversion {3.36pt}
\select@language {italian}
\select@language {italian}
\beamer@sectionintoc {1}{Introduzione}{3}{0}{1}
\beamer@subsectionintoc {1}{1}{Big Data}{4}{0}{1}
\select@language {english}
\select@language {italian}
\select@language {english}
\select@language {italian}
\select@language {english}
\select@language {italian}
\select@language {italian}
\beamer@subsectionintoc {1}{2}{Machine Learning}{8}{0}{1}
\select@language {english}
\select@language {italian}
\select@language {english}
\select@language {italian}
\select@language {english}
\select@language {italian}
\select@language {english}
\select@language {italian}
\select@language {english}
\select@language {italian}
\select@language {english}
\select@language {italian}
\beamer@sectionintoc {2}{Framework di Machine Learning}{12}{0}{2}
\beamer@subsectionintoc {2}{1}{Task di Machine Learning}{13}{0}{2}
\beamer@subsectionintoc {2}{2}{Scelta del miglior modello}{14}{0}{2}
\select@language {english}
\select@language {italian}
\select@language {italian}
\select@language {english}
\select@language {italian}
\select@language {english}
\select@language {italian}
\select@language {english}
\select@language {italian}
\select@language {english}
\select@language {italian}
\select@language {english}
\select@language {italian}
\select@language {english}
\select@language {italian}
\select@language {english}
\select@language {italian}
\select@language {english}
\select@language {italian}
\select@language {english}
\select@language {italian}
\select@language {english}
\select@language {italian}
\select@language {english}
\select@language {italian}
\select@language {english}
\select@language {italian}
\select@language {english}
\select@language {italian}
\select@language {english}
\select@language {italian}
\select@language {english}
\select@language {italian}
\select@language {english}
\select@language {italian}
\select@language {english}
\select@language {italian}
\select@language {english}
\select@language {italian}
\select@language {english}
\select@language {italian}
\select@language {italian}
\select@language {english}
\select@language {italian}
\select@language {english}
\select@language {italian}
\select@language {english}
\select@language {italian}
\select@language {english}
\select@language {italian}
\select@language {english}
\select@language {italian}
\select@language {english}
\select@language {italian}
\select@language {english}
\select@language {italian}
\select@language {english}
\select@language {italian}
\select@language {english}
\select@language {italian}
\select@language {english}
\select@language {italian}
\select@language {english}
\select@language {italian}
\select@language {english}
\select@language {italian}
\select@language {english}
\select@language {italian}
\select@language {english}
\select@language {italian}
\select@language {english}
\select@language {italian}
\select@language {english}
\select@language {italian}
\select@language {english}
\select@language {italian}
\select@language {english}
\select@language {italian}
\select@language {english}
\select@language {italian}
\select@language {english}
\select@language {italian}
\select@language {english}
\select@language {italian}
\select@language {english}
\select@language {italian}
\select@language {english}
\select@language {italian}
\select@language {english}
\select@language {italian}
\select@language {english}
\select@language {italian}
\select@language {italian}
\beamer@subsectionintoc {2}{3}{Fase di Predizione}{18}{0}{2}
\beamer@sectionintoc {3}{Implementazione del Sistema}{19}{0}{3}
\beamer@subsectionintoc {3}{1}{Apache Spark}{20}{0}{3}
\beamer@subsectionintoc {3}{2}{System Stack}{22}{0}{3}
\select@language {english}
\select@language {italian}
\select@language {italian}
\beamer@subsectionintoc {3}{3}{Implementazione operazioni}{24}{0}{3}
\select@language {english}
\select@language {italian}
\select@language {italian}
\select@language {english}
\select@language {italian}
\select@language {italian}
\beamer@sectionintoc {4}{Integrazione con !CHAOS}{26}{0}{4}
\beamer@subsectionintoc {4}{1}{!CHAOS}{27}{0}{4}
\select@language {english}
\select@language {italian}
\select@language {english}
\select@language {italian}
\select@language {english}
\select@language {italian}
\select@language {italian}
\beamer@subsectionintoc {4}{2}{Framework di ML \& !CHAOS}{30}{0}{4}
\select@language {english}
\select@language {italian}
\select@language {english}
\select@language {italian}
\beamer@subsectionintoc {4}{3}{Design issues}{36}{0}{4}
\beamer@sectionintoc {5}{Utilizzo del framework}{43}{0}{5}
\select@language {english}
\select@language {italian}
\select@language {english}
\select@language {italian}
\select@language {english}
\select@language {italian}
\select@language {english}
\select@language {italian}
\beamer@subsectionintoc {5}{1}{An investigation into self-sustaining firing}{51}{0}{5}
\beamer@sectionintoc {6}{Conclusioni}{53}{0}{6}
