\beamer@endinputifotherversion {3.36pt}
\headcommand {\slideentry {0}{0}{1}{1/1}{}{0}}
\headcommand {\beamer@framepages {1}{1}}
\headcommand {\slideentry {0}{0}{2}{2/2}{}{0}}
\headcommand {\beamer@framepages {2}{2}}
\headcommand {\sectionentry {1}{Introduzione}{3}{Introduzione}{0}}
\headcommand {\beamer@sectionpages {1}{2}}
\headcommand {\beamer@subsectionpages {1}{2}}
\headcommand {\slideentry {1}{0}{1}{3/3}{}{0}}
\headcommand {\beamer@framepages {3}{3}}
\headcommand {\beamer@subsectionentry {0}{1}{1}{4}{Big Data}}\headcommand {\beamer@subsectionpages {3}{3}}
\headcommand {\slideentry {1}{1}{1}{4/4}{Big Data}{0}}
\headcommand {\beamer@framepages {4}{4}}
\headcommand {\slideentry {1}{1}{2}{5/5}{Big Data}{0}}
\headcommand {\beamer@framepages {5}{5}}
\headcommand {\slideentry {1}{1}{3}{6/6}{Big Data}{0}}
\headcommand {\beamer@framepages {6}{6}}
\headcommand {\slideentry {1}{1}{4}{7/7}{Big Data}{0}}
\headcommand {\beamer@framepages {7}{7}}
\headcommand {\beamer@subsectionentry {0}{1}{2}{8}{Machine Learning}}\headcommand {\beamer@subsectionpages {4}{7}}
\headcommand {\slideentry {1}{2}{1}{8/8}{Machine Learning}{0}}
\headcommand {\beamer@framepages {8}{8}}
\headcommand {\slideentry {1}{2}{2}{9/9}{Machine Learning}{0}}
\headcommand {\beamer@framepages {9}{9}}
\headcommand {\slideentry {1}{2}{3}{10/10}{Machine Learning}{0}}
\headcommand {\beamer@framepages {10}{10}}
\headcommand {\slideentry {1}{2}{4}{11/11}{Machine Learning}{0}}
\headcommand {\beamer@framepages {11}{11}}
\headcommand {\sectionentry {2}{Framework di Machine Learning}{12}{Framework di Machine Learning}{0}}
\headcommand {\beamer@sectionpages {3}{11}}
\headcommand {\beamer@subsectionpages {8}{11}}
\headcommand {\slideentry {2}{0}{1}{12/12}{}{0}}
\headcommand {\beamer@framepages {12}{12}}
\headcommand {\beamer@subsectionentry {0}{2}{1}{13}{Task di Machine Learning}}\headcommand {\beamer@subsectionpages {12}{12}}
\headcommand {\slideentry {2}{1}{1}{13/13}{Task di Machine Learning}{0}}
\headcommand {\beamer@framepages {13}{13}}
\headcommand {\beamer@subsectionentry {0}{2}{2}{14}{Scelta del miglior modello}}\headcommand {\beamer@subsectionpages {13}{13}}
\headcommand {\slideentry {2}{2}{1}{14/14}{Scelta del miglior modello}{0}}
\headcommand {\beamer@framepages {14}{14}}
\headcommand {\slideentry {2}{2}{2}{15/15}{Scelta del miglior modello}{0}}
\headcommand {\beamer@framepages {15}{15}}
\headcommand {\slideentry {2}{2}{3}{16/16}{Scelta del miglior modello}{0}}
\headcommand {\beamer@framepages {16}{16}}
\headcommand {\slideentry {2}{2}{4}{17/17}{Scelta del miglior modello}{0}}
\headcommand {\beamer@framepages {17}{17}}
\headcommand {\beamer@subsectionentry {0}{2}{3}{18}{Fase di Predizione}}\headcommand {\beamer@subsectionpages {14}{17}}
\headcommand {\slideentry {2}{3}{1}{18/18}{Fase di Predizione}{0}}
\headcommand {\beamer@framepages {18}{18}}
\headcommand {\sectionentry {3}{Implementazione del Sistema}{19}{Implementazione del Sistema}{0}}
\headcommand {\beamer@sectionpages {12}{18}}
\headcommand {\beamer@subsectionpages {18}{18}}
\headcommand {\slideentry {3}{0}{1}{19/19}{}{0}}
\headcommand {\beamer@framepages {19}{19}}
\headcommand {\beamer@subsectionentry {0}{3}{1}{20}{Apache Spark}}\headcommand {\beamer@subsectionpages {19}{19}}
\headcommand {\slideentry {3}{1}{1}{20/20}{Apache Spark}{0}}
\headcommand {\beamer@framepages {20}{20}}
\headcommand {\slideentry {3}{1}{2}{21/21}{Apache Spark}{0}}
\headcommand {\beamer@framepages {21}{21}}
\headcommand {\beamer@subsectionentry {0}{3}{2}{22}{System Stack}}\headcommand {\beamer@subsectionpages {20}{21}}
\headcommand {\slideentry {3}{2}{1}{22/22}{System Stack}{0}}
\headcommand {\beamer@framepages {22}{22}}
\headcommand {\slideentry {3}{2}{2}{23/23}{System Stack}{0}}
\headcommand {\beamer@framepages {23}{23}}
\headcommand {\beamer@subsectionentry {0}{3}{3}{24}{Implementazione operazioni}}\headcommand {\beamer@subsectionpages {22}{23}}
\headcommand {\slideentry {3}{3}{1}{24/24}{Implementazione operazioni}{0}}
\headcommand {\beamer@framepages {24}{24}}
\headcommand {\slideentry {3}{3}{2}{25/25}{Implementazione operazioni}{0}}
\headcommand {\beamer@framepages {25}{25}}
\headcommand {\sectionentry {4}{Integrazione con !CHAOS}{26}{Integrazione con !CHAOS}{0}}
\headcommand {\beamer@sectionpages {19}{25}}
\headcommand {\beamer@subsectionpages {24}{25}}
\headcommand {\slideentry {4}{0}{1}{26/26}{}{0}}
\headcommand {\beamer@framepages {26}{26}}
\headcommand {\beamer@subsectionentry {0}{4}{1}{27}{!CHAOS}}\headcommand {\beamer@subsectionpages {26}{26}}
\headcommand {\slideentry {4}{1}{1}{27/27}{!CHAOS}{0}}
\headcommand {\beamer@framepages {27}{27}}
\headcommand {\slideentry {4}{1}{2}{28/28}{!CHAOS}{0}}
\headcommand {\beamer@framepages {28}{28}}
\headcommand {\slideentry {4}{1}{3}{29/29}{!CHAOS}{0}}
\headcommand {\beamer@framepages {29}{29}}
\headcommand {\beamer@subsectionentry {0}{4}{2}{30}{Framework di ML \& !CHAOS}}\headcommand {\beamer@subsectionpages {27}{29}}
\headcommand {\slideentry {4}{2}{1}{30/30}{Framework di ML \& !CHAOS}{0}}
\headcommand {\beamer@framepages {30}{30}}
\headcommand {\slideentry {4}{2}{2}{31/31}{Framework di ML \& !CHAOS}{0}}
\headcommand {\beamer@framepages {31}{31}}
\headcommand {\slideentry {4}{2}{3}{32/32}{Framework di ML \& !CHAOS}{0}}
\headcommand {\beamer@framepages {32}{32}}
\headcommand {\slideentry {4}{2}{4}{33/33}{Framework di ML \& !CHAOS}{0}}
\headcommand {\beamer@framepages {33}{33}}
\headcommand {\slideentry {4}{2}{5}{34/34}{Framework di ML \& !CHAOS}{0}}
\headcommand {\beamer@framepages {34}{34}}
\headcommand {\slideentry {4}{2}{6}{35/35}{Framework di ML \& !CHAOS}{0}}
\headcommand {\beamer@framepages {35}{35}}
\headcommand {\beamer@subsectionentry {0}{4}{3}{36}{Design issues}}\headcommand {\beamer@subsectionpages {30}{35}}
\headcommand {\slideentry {4}{3}{1}{36/36}{Design issues}{0}}
\headcommand {\beamer@framepages {36}{36}}
\headcommand {\slideentry {4}{3}{2}{37/41}{Design issues}{0}}
\headcommand {\beamer@framepages {37}{41}}
\headcommand {\slideentry {4}{3}{3}{42/42}{Design issues}{0}}
\headcommand {\beamer@framepages {42}{42}}
\headcommand {\sectionentry {5}{Utilizzo del framework}{43}{Utilizzo del framework}{0}}
\headcommand {\beamer@sectionpages {26}{42}}
\headcommand {\beamer@subsectionpages {36}{42}}
\headcommand {\slideentry {5}{0}{1}{43/43}{}{0}}
\headcommand {\beamer@framepages {43}{43}}
\headcommand {\slideentry {5}{0}{2}{44/44}{}{0}}
\headcommand {\beamer@framepages {44}{44}}
\headcommand {\slideentry {5}{0}{3}{45/45}{}{0}}
\headcommand {\beamer@framepages {45}{45}}
\headcommand {\slideentry {5}{0}{4}{46/46}{}{0}}
\headcommand {\beamer@framepages {46}{46}}
\headcommand {\slideentry {5}{0}{5}{47/47}{}{0}}
\headcommand {\beamer@framepages {47}{47}}
\headcommand {\slideentry {5}{0}{6}{48/48}{}{0}}
\headcommand {\beamer@framepages {48}{48}}
\headcommand {\slideentry {5}{0}{7}{49/49}{}{0}}
\headcommand {\beamer@framepages {49}{49}}
\headcommand {\slideentry {5}{0}{8}{50/50}{}{0}}
\headcommand {\beamer@framepages {50}{50}}
\headcommand {\beamer@subsectionentry {0}{5}{1}{51}{An investigation into self-sustaining firing}}\headcommand {\beamer@subsectionpages {43}{50}}
\headcommand {\slideentry {5}{1}{1}{51/51}{An investigation into self-sustaining firing}{0}}
\headcommand {\beamer@framepages {51}{51}}
\headcommand {\slideentry {5}{1}{2}{52/52}{An investigation into self-sustaining firing}{0}}
\headcommand {\beamer@framepages {52}{52}}
\headcommand {\sectionentry {6}{Conclusioni}{53}{Conclusioni}{0}}
\headcommand {\beamer@sectionpages {43}{52}}
\headcommand {\beamer@subsectionpages {51}{52}}
\headcommand {\slideentry {6}{0}{1}{53/53}{}{0}}
\headcommand {\beamer@framepages {53}{53}}
\headcommand {\slideentry {6}{0}{2}{54/54}{}{0}}
\headcommand {\beamer@framepages {54}{54}}
\headcommand {\slideentry {6}{0}{3}{55/55}{}{0}}
\headcommand {\beamer@framepages {55}{55}}
\headcommand {\slideentry {6}{0}{4}{56/56}{}{0}}
\headcommand {\beamer@framepages {56}{56}}
\headcommand {\beamer@partpages {1}{56}}
\headcommand {\beamer@subsectionpages {53}{56}}
\headcommand {\beamer@sectionpages {53}{56}}
\headcommand {\beamer@documentpages {56}}
\headcommand {\def \inserttotalframenumber {52}}
